\relax 
\providecommand\hyper@newdestlabel[2]{}
\catcode `"\active 
\providecommand\HyperFirstAtBeginDocument{\AtBeginDocument}
\HyperFirstAtBeginDocument{\ifx\hyper@anchor\@undefined
\global\let\oldcontentsline\contentsline
\gdef\contentsline#1#2#3#4{\oldcontentsline{#1}{#2}{#3}}
\global\let\oldnewlabel\newlabel
\gdef\newlabel#1#2{\newlabelxx{#1}#2}
\gdef\newlabelxx#1#2#3#4#5#6{\oldnewlabel{#1}{{#2}{#3}}}
\AtEndDocument{\ifx\hyper@anchor\@undefined
\let\contentsline\oldcontentsline
\let\newlabel\oldnewlabel
\fi}
\fi}
\global\let\hyper@last\relax 
\gdef\HyperFirstAtBeginDocument#1{#1}
\providecommand\HyField@AuxAddToFields[1]{}
\providecommand\HyField@AuxAddToCoFields[2]{}
\babel@aux{dutch}{}
\@writefile{toc}{\contentsline {section}{\numberline {1}Inleiding}{1}{section.1}}
\@writefile{toc}{\contentsline {section}{\numberline {2}Verslag}{1}{section.2}}
\@writefile{toc}{\contentsline {subsection}{\numberline {2.1}Aanpak}{1}{subsection.2.1}}
\@writefile{toc}{\contentsline {subsubsection}{\numberline {2.1.1}Probleemstelling}{1}{subsubsection.2.1.1}}
\@writefile{toc}{\contentsline {subsubsection}{\numberline {2.1.2}Scope}{1}{subsubsection.2.1.2}}
\@writefile{toc}{\contentsline {subsubsection}{\numberline {2.1.3}Onderverdeling}{2}{subsubsection.2.1.3}}
\@writefile{toc}{\contentsline {subsubsection}{\numberline {2.1.4}Werkwijze}{2}{subsubsection.2.1.4}}
\@writefile{toc}{\contentsline {subsection}{\numberline {2.2}Taal leren}{3}{subsection.2.2}}
\@writefile{toc}{\contentsline {subsection}{\numberline {2.3}Taal detecteren}{3}{subsection.2.3}}
\citation{str}
\citation{mau}
\bibcite{str}{1}
\@writefile{toc}{\contentsline {subsection}{\numberline {2.4}Vergelijken met referentievectoren}{4}{subsection.2.4}}
\@writefile{toc}{\contentsline {section}{\numberline {3}Conslusies}{4}{section.3}}
\bibcite{mau}{2}
