\relax 
\providecommand\hyper@newdestlabel[2]{}
\providecommand\HyperFirstAtBeginDocument{\AtBeginDocument}
\HyperFirstAtBeginDocument{\ifx\hyper@anchor\@undefined
\global\let\oldcontentsline\contentsline
\gdef\contentsline#1#2#3#4{\oldcontentsline{#1}{#2}{#3}}
\global\let\oldnewlabel\newlabel
\gdef\newlabel#1#2{\newlabelxx{#1}#2}
\gdef\newlabelxx#1#2#3#4#5#6{\oldnewlabel{#1}{{#2}{#3}}}
\AtEndDocument{\ifx\hyper@anchor\@undefined
\let\contentsline\oldcontentsline
\let\newlabel\oldnewlabel
\fi}
\fi}
\global\let\hyper@last\relax 
\gdef\HyperFirstAtBeginDocument#1{#1}
\providecommand\HyField@AuxAddToFields[1]{}
\providecommand\HyField@AuxAddToCoFields[2]{}
\citation{huh}
\@writefile{nav}{\headcommand {\slideentry {0}{0}{1}{1/1}{}{0}}}
\@writefile{nav}{\headcommand {\beamer@framepages {1}{1}}}
\@writefile{nav}{\headcommand {\slideentry {0}{0}{2}{2/5}{}{0}}}
\@writefile{nav}{\headcommand {\beamer@framepages {2}{5}}}
\@writefile{nav}{\headcommand {\slideentry {0}{0}{3}{6/6}{}{0}}}
\@writefile{nav}{\headcommand {\beamer@framepages {6}{6}}}
\@writefile{nav}{\headcommand {\slideentry {0}{0}{4}{7/19}{}{0}}}
\@writefile{nav}{\headcommand {\beamer@framepages {7}{19}}}
\citation{mau}
\citation{mau}
\citation{mau}
\citation{mau}
\citation{mau}
\citation{mau}
\citation{mau}
\citation{mau}
\citation{mau}
\citation{mau}
\citation{mau}
\@writefile{nav}{\headcommand {\slideentry {0}{0}{5}{20/30}{}{0}}}
\@writefile{nav}{\headcommand {\beamer@framepages {20}{30}}}
\citation{str}
\@writefile{nav}{\headcommand {\slideentry {0}{0}{6}{31/31}{}{0}}}
\@writefile{nav}{\headcommand {\beamer@framepages {31}{31}}}
\citation{act}
\@writefile{nav}{\headcommand {\slideentry {0}{0}{7}{32/32}{}{0}}}
\@writefile{nav}{\headcommand {\beamer@framepages {32}{32}}}
\@writefile{nav}{\headcommand {\slideentry {0}{0}{8}{33/36}{}{0}}}
\@writefile{nav}{\headcommand {\beamer@framepages {33}{36}}}
\@writefile{nav}{\headcommand {\slideentry {0}{0}{9}{37/41}{}{0}}}
\@writefile{nav}{\headcommand {\beamer@framepages {37}{41}}}
\citation{vra}
\@writefile{nav}{\headcommand {\slideentry {0}{0}{10}{42/42}{}{0}}}
\@writefile{nav}{\headcommand {\beamer@framepages {42}{42}}}
\bibcite{huh}{\hyperlink {beamerbibhuh}{1}}
\bibcite{str}{\hyperlink {beamerbibstr}{2}}
\bibcite{mau}{\hyperlink {beamerbibmau}{3}}
\bibcite{act}{\hyperlink {beamerbibact}{4}}
\bibcite{vra}{\hyperlink {beamerbibvra}{5}}
\@writefile{nav}{\headcommand {\slideentry {0}{0}{11}{43/43}{}{0}}}
\@writefile{nav}{\headcommand {\beamer@framepages {43}{43}}}
\@writefile{nav}{\headcommand {\beamer@partpages {1}{43}}}
\@writefile{nav}{\headcommand {\beamer@subsectionpages {1}{43}}}
\@writefile{nav}{\headcommand {\beamer@sectionpages {1}{43}}}
\@writefile{nav}{\headcommand {\beamer@documentpages {43}}}
\@writefile{nav}{\headcommand {\gdef \inserttotalframenumber {11}}}
